김남우 교수님/RTL_GDS_2/alu_tb.vcd
$date
    Nov  6, 2025  07:22:31
$end
$version
    TOOL:	xmsim	24.09-s005
$end
$timescale
    1 ps
$end

$scope module ALU_tb $end
$var reg       8 !    a [7:0] $end
$var reg       8 "    b [7:0] $end
$var reg       3 #    opcode [2:0] $end
$var reg       1 $    ena $end
$var wire     16 %    result [15:0] $end
$var integer  32 &    test_count $end
$var integer  32 '    pass_count $end
$var integer  32 (    fail_count $end

$scope module uut $end
$var wire      8 )    a [7:0] $end
$var wire      8 *    b [7:0] $end
$var wire      3 +    opcode [2:0] $end
$var wire      1 ,    ena  $end
$var reg      16 -    result [15:0] $end
$var wire     16 .    a16 [15:0] $end
$var wire     16 /    b16 [15:0] $end
$var wire     16 0    multiply_temp [15:0] $end
$var wire      1 1    div_by_zero  $end
$upscope $end


$scope task check_result $end
$var reg      16 2    expected [15:0] $end
$var reg      128 3    test_name [127:0] $end
$upscope $end

$upscope $end

$enddefinitions $end
$dumpvars
b0 !
b0 "
b0 #
0$
b0 %
b0 &
b0 '
b0 (
b0 )
b0 *
b0 +
0,
b0 -
b0 .
b0 /
b0 0
11
bx 2
bx 3
$end
#10000
b1111 !
b101 "
b0 2
b11111111111111111111111111101100111111111111111111111111100101101111111111111111111111111011110011111111111111111111111110101000 3
b1 &
b101 *
b1111 )
b1111 .
01
b101 /
b1001011 0
#11000
b1 '
#20000
1$
b0 !
b0 "
b11111111111111111111111110000101100010000011101000100000001100000010000000101011001000000011000000100000001111010010000000110000 3
b10 &
b0 *
b0 )
1,
b10100 -
b0 .
11
b0 /
b0 0
b10100 %
b0 -
b0 %
#21000
b10 '
#30000
b1111 !
b101 "
b10100 2
b11111111111111111000100000111010001000000011000100110101001000000010101100100000001101010010000000111101001000000011001000110000 3
b11 &
b101 *
b1111 )
b1111 .
01
b101 /
b1001011 0
b10100 -
b10100 %
#31000
b11 '
#40000
b11111111 !
b1 "
b100000000 2
b11111111111111111111111111101011111111111111111111111111100101001111111111111111111111111001110011111111111111111011000000101001 3
b100 &
b1 *
b11111111 )
b0 -
b10100 -
b11111111 .
b1 /
b11111111 0
b0 -
b100000000 -
b100000000 %
#41000
b100 '
#50000
b1111111 !
b1111111 "
b11111110 2
b100000001100010011001000110111001000000010101100100000001100010011001000110111001000000011110100100000001100100011010100110100 3
b101 &
b1111111 *
b1111111 )
b0 -
b100000000 -
b1111111 .
b1111111 /
b11111100000001 0
b0 -
b11111110 -
b11111110 %
#51000
b101 '
#60000
b1 #
b1010 !
b101 "
b101 2
b11111111111111111111111110001000001110100010000000110001001100000010000000101101001000000011010100100000001111010010000000110101 3
b110 &
b101 *
b1010 )
b1 +
b0 -
b101 -
b1010 .
b101 /
b110010 0
b101 %
b0 -
b101 -
#61000
b110 '
#70000
b101 !
b1010 "
b11111011 2
b11111111111111111111111111101011111111111111111111111111100101001111111111111111111111111001110011111111111111111011000000101001 3
b111 &
b1010 *
b101 )
b0 -
b11111011 -
b101 .
b1010 /
b11111011 %
b0 -
b11111011 -
#71000
b111 '
#80000
b11111111 !
b11111111 "
b0 2
b10001000001110100010000000110010001101010011010100100000001011010010000000110010001101010011010100100000001111010010000000110000 3
b1000 &
b11111111 *
b11111111 )
b0 -
b11111111 .
b11111111 /
b1111111000000001 0
b0 %
#81000
b1000 '
#90000
b10 #
b0 !
b101 "
b11111111111111111111111110000101100010000011101000100000001100000010000000101010001000000011010100100000001111010010000000110000 3
b1001 &
b101 *
b0 )
b10 +
b1111111000000001 -
b0 .
b101 /
b0 0
b1111111000000001 %
b0 -
b0 %
#91000
b1001 '
#100000
b101 !
b110 "
b11110 2
b11111111111111111111111110001000001110100010000000110101001000000010101000100000001101100010000000111101001000000011001100110000 3
b1010 &
b110 *
b101 )
b101 .
b110 /
b11110 0
b11110 -
b11110 %
#101000
b1010 '
#110000
b1111 !
b10000 "
b11110000 2
b10001000001110100010000000110001001101010010000000101010001000000011000100110110001000000011110100100000001100100011010000110000 3
b1011 &
b10000 *
b1111 )
b0 -
b11110 -
b1111 .
b10000 /
b11110000 0
b0 -
b11110000 -
b11110000 %
#111000
b1011 '
#120000
b11111111 !
b11111111 "
b1111111000000001 2
b110101001101010010000000101010001000000011001000110101001101010010000000111101001000000011011000110101001100000011001000110101 3
b1100 &
b11111111 *
b11111111 )
b0 -
b11110000 -
b11111111 .
b11111111 /
b1111111000000001 0
b0 -
b1111111000000001 -
b1111111000000001 %
#121000
b1100 '
#130000
b11 #
b1010 !
b10 "
b101 2
b11111111111111111111111110001000001110100010000000110001001100000010000000101111001000000011001000100000001111010010000000110101 3
b1101 &
b10 *
b1010 )
b11 +
b0 -
b101 -
b1010 .
b10 /
b10100 0
b101 %
b0 -
b101 -
#131000
b1101 '
#140000
b1111 !
b100 "
b11 2
b11111111111111111111111110001000111111111111111111111111100000101111111111111111111111111001011111111111111111111000100000101001 3
b1110 &
b100 *
b1111 )
b0 -
b11 -
b1111 .
b100 /
b111100 0
b11 %
b0 -
b11 -
#141000
b1110 '
#150000
b1100100 !
b0 "
b0 2
b11111111111111111111111110100001111111111111111111111111100000101111111111111111111111111000010011111111111111111011000000101001 3
b1111 &
b0 *
b1100100 )
b0 -
b0xxxxxxxx -
b1100100 .
11
b0 /
b0 0
b0xxxxxxxx %
b0 -
b0 %
#151000
b1111 '
#160000
b11111111 !
b1 "
b11111111 2
b10001000001110100010000000110010001101010011010100100000001011110010000000110001001000000011110100100000001100100011010100110101 3
b10000 &
b1 *
b11111111 )
b11111111 .
01
b1 /
b11111111 0
b11111111 -
b11111111 %
#161000
b10000 '
#170000
b100 #
b1010 !
b11 "
b1 2
b11111111111111111111111110000000001110100010000000110001001100000010000000100101001000000011001100100000001111010010000000110001 3
b10001 &
b11 *
b1010 )
b100 +
b0 -
b1 -
b1010 .
b11 /
b11110 0
b1 %
b0 -
b1 -
#171000
b10001 '
#180000
b1111 !
b100 "
b11 2
b11111111111111111111111110000000001110100010000000110001001101010010000000100101001000000011010000100000001111010010000000110011 3
b10010 &
b100 *
b1111 )
b0 -
b11 -
b1111 .
b100 /
b111100 0
b11 %
b0 -
b11 -
#181000
b10010 '
#190000
b1100100 !
b0 "
b0 2
b11111111111111111111111110100001111111111111111111111111100000101111111111111111111111111000010011111111111111111011000000101001 3
b10011 &
b0 *
b1100100 )
b0 -
b0xxxxxxxx -
b1100100 .
11
b0 /
b0 0
b0xxxxxxxx %
b0 -
b0 %
#191000
b10011 '
#200000
b1000 !
b100 "
b11111111111111111111111110100111100000000011101000100000001110000010000000100101001000000011010000100000001111010010000000110000 3
b10100 &
b100 *
b1000 )
b1000 .
01
b100 /
b100000 0
#201000
b10100 '
#210000
b101 #
b1010 !
b1010 "
b1 2
b11111111100011000011101000100000001100010011000000100000001111010011110100100000001100010011000000100000001111010010000000110001 3
b10101 &
b1010 *
b1010 )
b101 +
b1 -
b1010 .
b1010 /
b1100100 0
b1 %
b0 -
b1 -
#211000
b10101 '
#220000
b1011 "
b0 2
b11111111100011000011101000100000001100010011000000100000001111010011110100100000001100010011000100100000001111010010000000110000 3
b10110 &
b1011 *
b0 -
b1011 /
b1101110 0
b0 %
#221000
b10110 '
#230000
b11111111 !
b11111111 "
b1 2
b111010001000000011001000110101001101010010000000111101001111010010000000110010001101010011010100100000001111010010000000110001 3
b10111 &
b11111111 *
b11111111 )
b1 -
b11111111 .
b11111111 /
b1111111000000001 0
b1 %
b0 -
b1 -
#231000
b10111 '
#240000
b110 #
b1011 !
b1010 "
b11111111111111111011000000111010001000000011000100110001001000000011111000100000001100010011000000100000001111010010000000110001 3
b11000 &
b1010 *
b1011 )
b110 +
b0 -
b1 -
b1011 .
b1010 /
b1101110 0
b0 -
b1 -
#241000
b11000 '
#250000
b1010 !
b1011 "
b0 2
b11111111111111111011000000111010001000000011000100110000001000000011111000100000001100010011000100100000001111010010000000110000 3
b11001 &
b1011 *
b1010 )
b0 -
b1010 .
b1011 /
b0 %
#251000
b11001 '
#260000
b1010 "
b11111111111111111011000000111010001000000011000100110000001000000011111000100000001100010011000000100000001111010010000000110000 3
b11010 &
b1010 *
b1010 /
b1100100 0
#261000
b11010 '
#270000
b111 #
b1011 "
b1 2
b11111111111111111011000000111010001000000011000100110000001000000011110000100000001100010011000100100000001111010010000000110001 3
b11011 &
b1011 *
b111 +
b1 -
b1011 /
b1101110 0
b1 %
b0 -
b1 -
#271000
b11011 '
#280000
b1011 !
b1010 "
b0 2
b11111111111111111011000000111010001000000011000100110001001000000011110000100000001100010011000000100000001111010010000000110000 3
b11100 &
b1010 *
b1011 )
b0 -
b1011 .
b1010 /
b0 %
#281000
b11100 '
#290000
b1010 !
b11111111111111111011000000111010001000000011000100110000001000000011110000100000001100010011000000100000001111010010000000110000 3
b11101 &
b1010 )
b1010 .
b1100100 0
#291000
b11101 '
#300000
b100100 !
b10000001 "
b1 #
b1 +
b10000001 *
b100100 )
b10100011 -
b100100 .
b10000001 /
b1001000100100 0
b10100011 %
b0 -
b10100011 -
#310000
b1100011 !
b1101 "
b101 #
b101 +
b1101 *
b1100011 )
b0 -
b1100011 .
b1101 /
b10100000111 0
b0 %
#320000
b1100101 !
b10010 "
b1 #
b1 +
b10010 *
b1100101 )
b1010011 -
b1100101 .
b10010 /
b11100011010 0
b1010011 %
b0 -
b1010011 -
#330000
b1101 !
b1110110 "
b101 #
b101 +
b1110110 *
b1101 )
b0 -
b1101 .
b1110110 /
b10111111110 0
b0 %
#340000
b11101101 !
b10001100 "
b1 #
b1 +
b10001100 *
b11101101 )
b1100001 -
b11101101 .
b10001100 /
b1000000110011100 0
b1100001 %
b0 -
b1100001 -
#350000
b11000110 !
b11000101 "
b10 #
b10 +
b11000101 *
b11000110 )
b0 -
b1000000110011100 -
b11000110 .
b11000101 /
b1001100001011110 0
b1000000110011100 %
b0 -
b1001100001011110 -
b1001100001011110 %
#360000
b11100101 !
b1110111 "
b1110111 *
b11100101 )
b0 -
b1001100001011110 -
b11100101 .
b1110111 /
b110101001110011 0
b0 -
b110101001110011 -
b110101001110011 %
#370000
b10001111 !
b11110010 "
b110 #
b110 +
b11110010 *
b10001111 )
b0 -
b10001111 .
b11110010 /
b1000011100101110 0
b0 %
#380000
b11101000 !
b11000101 "
b100 #
b100 +
b11000101 *
b11101000 )
b100011 -
b11101000 .
b11000101 /
b1011001010001000 0
b100011 %
b0 -
b100011 -
#390000
b10111101 !
b101101 "
b101 #
b101 +
b101101 *
b10111101 )
b0 -
b10111101 .
b101101 /
b10000100111001 0
b0 %
